<?xml version="1.0" encoding="utf-8" ?>
<kml xmlns="http://www.opengis.net/kml/2.2">
<Document id="root_doc">
<Schema name="con_etiquetas_7" id="con_etiquetas_7">
	<SimpleField name="id" type="float"></SimpleField>
	<SimpleField name="Carpetin" type="string"></SimpleField>
</Schema>
<Folder><name>con_etiquetas_7</name>
  <Placemark>
	<ExtendedData><SchemaData schemaUrl="#con_etiquetas_7">
		<SimpleData name="id">1</SimpleData>
		<SimpleData name="Carpetin">1</SimpleData>
	</SchemaData></ExtendedData>
      <Point><coordinates>-62.569967528039,-34.2024911707488</coordinates></Point>
  </Placemark>
  <Placemark>
	<ExtendedData><SchemaData schemaUrl="#con_etiquetas_7">
		<SimpleData name="id">2</SimpleData>
		<SimpleData name="Carpetin">2</SimpleData>
	</SchemaData></ExtendedData>
      <Point><coordinates>-62.5653060096239,-34.1999157022273</coordinates></Point>
  </Placemark>
  <Placemark>
	<ExtendedData><SchemaData schemaUrl="#con_etiquetas_7">
		<SimpleData name="id">3</SimpleData>
		<SimpleData name="Carpetin">3</SimpleData>
	</SchemaData></ExtendedData>
      <Point><coordinates>-62.556014664185,-34.1950564918028</coordinates></Point>
  </Placemark>
  <Placemark>
	<ExtendedData><SchemaData schemaUrl="#con_etiquetas_7">
		<SimpleData name="id">4</SimpleData>
		<SimpleData name="Carpetin">4</SimpleData>
	</SchemaData></ExtendedData>
      <Point><coordinates>-62.543493739211,-34.187535533262</coordinates></Point>
  </Placemark>
  <Placemark>
	<ExtendedData><SchemaData schemaUrl="#con_etiquetas_7">
		<SimpleData name="id">5</SimpleData>
		<SimpleData name="Carpetin">5</SimpleData>
	</SchemaData></ExtendedData>
      <Point><coordinates>-62.5357250224518,-34.1841444663876</coordinates></Point>
  </Placemark>
</Folder>
</Document></kml>
