<?xml version="1.0" encoding="utf-8" ?>
<kml xmlns="http://www.opengis.net/kml/2.2">
<Document id="root_doc">
<Schema name="RNN33_T01___V1" id="RNN33_T01___V1">
	<SimpleField name="FID" type="float"></SimpleField>
</Schema>
<Folder><name>RNN33_T01___V1</name>
  <Placemark>
	<Style><LineStyle><color>ff0000ff</color></LineStyle><PolyStyle><fill>0</fill></PolyStyle></Style>
	<ExtendedData><SchemaData schemaUrl="#RNN33_T01___V1">
		<SimpleData name="FID">2</SimpleData>
	</SchemaData></ExtendedData>
      <MultiGeometry><Polygon><outerBoundaryIs><LinearRing><coordinates>-62.5592711438827,-34.1971288014281 -62.5673511234378,-34.2014249689018 -62.5682496110189,-34.2012644865314 -62.5590826086115,-34.1963919761411 -62.5592711438827,-34.1971288014281</coordinates></LinearRing></outerBoundaryIs></Polygon></MultiGeometry>
  </Placemark>
  <Placemark>
	<Style><LineStyle><color>ff0000ff</color></LineStyle><PolyStyle><fill>0</fill></PolyStyle></Style>
	<ExtendedData><SchemaData schemaUrl="#RNN33_T01___V1">
		<SimpleData name="FID">22</SimpleData>
	</SchemaData></ExtendedData>
      <MultiGeometry><Polygon><outerBoundaryIs><LinearRing><coordinates>-62.3977456405848,-34.1112717348114 -62.4006065741488,-34.1129499466632 -62.4011944600858,-34.1128455328898 -62.3976097773566,-34.1107423082295 -62.3977456405848,-34.1112717348114</coordinates></LinearRing></outerBoundaryIs></Polygon></MultiGeometry>
  </Placemark>
  <Placemark>
	<Style><LineStyle><color>ff0000ff</color></LineStyle><PolyStyle><fill>0</fill></PolyStyle></Style>
	<ExtendedData><SchemaData schemaUrl="#RNN33_T01___V1">
		<SimpleData name="FID">21</SimpleData>
	</SchemaData></ExtendedData>
      <MultiGeometry><Polygon><outerBoundaryIs><LinearRing><coordinates>-62.4008478645459,-34.1130914955641 -62.404720067125,-34.1153625629514 -62.4045852064463,-34.1148359196908 -62.401435531955,-34.1129869947724 -62.4008478645459,-34.1130914955641</coordinates></LinearRing></outerBoundaryIs></Polygon></MultiGeometry>
  </Placemark>
  <Placemark>
	<Style><LineStyle><color>ff0000ff</color></LineStyle><PolyStyle><fill>0</fill></PolyStyle></Style>
	<ExtendedData><SchemaData schemaUrl="#RNN33_T01___V1">
		<SimpleData name="FID">19</SimpleData>
	</SchemaData></ExtendedData>
      <MultiGeometry><Polygon><outerBoundaryIs><LinearRing><coordinates>-62.4156987752803,-34.1215542712021 -62.4159788362034,-34.1216704227752 -62.4163594694324,-34.1218250582784 -62.4167636323829,-34.1219877907908 -62.4157987413234,-34.1214229794571 -62.4156987752803,-34.1215542712021</coordinates></LinearRing></outerBoundaryIs></Polygon></MultiGeometry>
  </Placemark>
  <Placemark>
	<Style><LineStyle><color>ff0000ff</color></LineStyle><PolyStyle><fill>0</fill></PolyStyle></Style>
	<ExtendedData><SchemaData schemaUrl="#RNN33_T01___V1">
		<SimpleData name="FID">20</SimpleData>
	</SchemaData></ExtendedData>
      <MultiGeometry><Polygon><outerBoundaryIs><LinearRing><coordinates>-62.4049886973064,-34.1155201501395 -62.4127957681409,-34.1200977817536 -62.4137164253628,-34.1206134701055 -62.4143193828075,-34.1209235252964 -62.4149909018715,-34.1212437639768 -62.4156987752803,-34.1215542712021 -62.4157979095442,-34.1214165972081 -62.4048528229248,-34.1149883901495 -62.4049886973064,-34.1155201501395</coordinates></LinearRing></outerBoundaryIs></Polygon></MultiGeometry>
  </Placemark>
  <Placemark>
	<Style><LineStyle><color>ff0000ff</color></LineStyle><PolyStyle><fill>0</fill></PolyStyle></Style>
	<ExtendedData><SchemaData schemaUrl="#RNN33_T01___V1">
		<SimpleData name="FID">18</SimpleData>
	</SchemaData></ExtendedData>
      <MultiGeometry><Polygon><outerBoundaryIs><LinearRing><coordinates>-62.4285857700751,-34.1267588627506 -62.429164250069,-34.1270281413893 -62.429895794547,-34.1274087503368 -62.4305624794771,-34.1277985699097 -62.4310259419216,-34.1280963424129 -62.4314623382828,-34.1283987047507 -62.4318498901466,-34.1286868930041 -62.4321317358216,-34.1289091335476 -62.4324929090135,-34.1292107296872 -62.4328258699021,-34.1295072063387 -62.4329627396364,-34.1295713627467 -62.4320802061373,-34.1261729115612 -62.4320575793304,-34.1261769534222 -62.432058952778,-34.126208184323 -62.4320273886963,-34.1262424232546 -62.4309821626723,-34.1264240237423 -62.4309079654087,-34.126429008097 -62.4308220967943,-34.1264237695385 -62.4307419863763,-34.1264076924788 -62.4306704166295,-34.1263833353305 -62.4205117560945,-34.1222952351782 -62.4161070486682,-34.1205136239869 -62.4154159436699,-34.1206360927886 -62.4198067836956,-34.1232126018658 -62.4276297446059,-34.1263608768425 -62.4285857700751,-34.1267588627506</coordinates></LinearRing></outerBoundaryIs></Polygon></MultiGeometry>
  </Placemark>
  <Placemark>
	<Style><LineStyle><color>ff0000ff</color></LineStyle><PolyStyle><fill>0</fill></PolyStyle></Style>
	<ExtendedData><SchemaData schemaUrl="#RNN33_T01___V1">
		<SimpleData name="FID">17</SimpleData>
	</SchemaData></ExtendedData>
      <MultiGeometry><Polygon><outerBoundaryIs><LinearRing><coordinates>-62.4322928760857,-34.1261369744626 -62.4332092383742,-34.129664256948 -62.4347343543587,-34.1309563527619 -62.4356177477626,-34.1307993166579 -62.4353658074131,-34.1304716805943 -62.4350182072398,-34.1300506842961 -62.4344690800181,-34.1294459629864 -62.4339846906477,-34.1289481902455 -62.4336876783701,-34.1285789071988 -62.4334427592619,-34.1281970549855 -62.4332316919268,-34.1277673978317 -62.4330624980529,-34.1272711218518 -62.4328321781023,-34.1263813275895 -62.4328130811876,-34.1263313285367 -62.4327829346624,-34.1262852434654 -62.4327403228232,-34.1262428300661 -62.4326898333472,-34.1262091342851 -62.4326403241554,-34.1261869545322 -62.4325712195514,-34.1261692185902 -62.43251126199,-34.1261643688524 -62.4324223278115,-34.126169375837 -62.4323808695991,-34.1261550957916 -62.4323652186666,-34.1261240052699 -62.4322928760857,-34.1261369744626</coordinates></LinearRing></outerBoundaryIs></Polygon></MultiGeometry>
  </Placemark>
  <Placemark>
	<Style><LineStyle><color>ff0000ff</color></LineStyle><PolyStyle><fill>0</fill></PolyStyle></Style>
	<ExtendedData><SchemaData schemaUrl="#RNN33_T01___V1">
		<SimpleData name="FID">16</SimpleData>
	</SchemaData></ExtendedData>
      <MultiGeometry><Polygon><outerBoundaryIs><LinearRing><coordinates>-62.4349111418561,-34.1311274093262 -62.4402002547352,-34.1412941430893 -62.4411639961471,-34.1410660527882 -62.4367473428564,-34.1325854365717 -62.436377842259,-34.1319306555782 -62.4359616758832,-34.1312809451323 -62.4357493558036,-34.130978298051 -62.4349111418561,-34.1311274093262</coordinates></LinearRing></outerBoundaryIs></Polygon></MultiGeometry>
  </Placemark>
  <Placemark>
	<Style><LineStyle><color>ff0000ff</color></LineStyle><PolyStyle><fill>0</fill></PolyStyle></Style>
	<ExtendedData><SchemaData schemaUrl="#RNN33_T01___V1">
		<SimpleData name="FID">15</SimpleData>
	</SchemaData></ExtendedData>
      <MultiGeometry><Polygon><outerBoundaryIs><LinearRing><coordinates>-62.4420242379564,-34.144808314836 -62.4423650986804,-34.145210136556 -62.4426881400162,-34.1455651789864 -62.4430769219419,-34.1459634310065 -62.4444510935433,-34.1456279398284 -62.4440278856979,-34.1452237992141 -62.4435574870332,-34.1447315578436 -62.4431161485108,-34.1442207117908 -62.4426876172355,-34.1436688745704 -62.4423492764866,-34.14318499375 -62.442023755869,-34.142668142984 -62.4414669818336,-34.1416480635869 -62.441164775581,-34.1410675742948 -62.4401970108054,-34.1412966933154 -62.4420242379564,-34.144808314836</coordinates></LinearRing></outerBoundaryIs></Polygon></MultiGeometry>
  </Placemark>
  <Placemark>
	<Style><LineStyle><color>ff0000ff</color></LineStyle><PolyStyle><fill>0</fill></PolyStyle></Style>
	<ExtendedData><SchemaData schemaUrl="#RNN33_T01___V1">
		<SimpleData name="FID">14</SimpleData>
	</SchemaData></ExtendedData>
      <MultiGeometry><Polygon><outerBoundaryIs><LinearRing><coordinates>-62.444972989667,-34.1478799232577 -62.4529800568057,-34.1516342894026 -62.4543956693401,-34.1513806774393 -62.4481845159176,-34.148147165717 -62.4472817796621,-34.1476654582663 -62.4466993495779,-34.1473225408144 -62.4461926175346,-34.1469958649912 -62.4456994243119,-34.1466499016983 -62.4452028910658,-34.1462706583303 -62.4447576866566,-34.1459008440656 -62.4444510935433,-34.1456279398284 -62.4427333507698,-34.1460473245223 -62.4427333507698,-34.1460473245223 -62.4429478493477,-34.1463250670675 -62.4431831437854,-34.1465909149214 -62.4434382830482,-34.146843793354 -62.4437122358477,-34.1470826800586 -62.4440038948103,-34.1473066092854 -62.4443120809527,-34.147514675748 -62.4446355484489,-34.1477060382841 -62.444972989667,-34.1478799232577</coordinates></LinearRing></outerBoundaryIs></Polygon></MultiGeometry>
  </Placemark>
  <Placemark>
	<Style><LineStyle><color>ff0000ff</color></LineStyle><PolyStyle><fill>0</fill></PolyStyle></Style>
	<ExtendedData><SchemaData schemaUrl="#RNN33_T01___V1">
		<SimpleData name="FID">13</SimpleData>
	</SchemaData></ExtendedData>
      <MultiGeometry><Polygon><outerBoundaryIs><LinearRing><coordinates>-62.4532984581765,-34.1517815777092 -62.4583115338059,-34.1541315032074 -62.4580978417693,-34.1533077627163 -62.4546876495612,-34.1515326361894 -62.4532984581765,-34.1517815777092</coordinates></LinearRing></outerBoundaryIs></Polygon></MultiGeometry>
  </Placemark>
  <Placemark>
	<Style><LineStyle><color>ff0000ff</color></LineStyle><PolyStyle><fill>0</fill></PolyStyle></Style>
	<ExtendedData><SchemaData schemaUrl="#RNN33_T01___V1">
		<SimpleData name="FID">12</SimpleData>
	</SchemaData></ExtendedData>
      <MultiGeometry><Polygon><outerBoundaryIs><LinearRing><coordinates>-62.4583115338059,-34.1541315032074 -62.465441810762,-34.1574733795918 -62.4652597834257,-34.1567720310209 -62.4609057675214,-34.1547351145412 -62.460296182784,-34.1544424652986 -62.4596256205094,-34.154102911411 -62.4580978417693,-34.1533077627163 -62.4583115338059,-34.1541315032074</coordinates></LinearRing></outerBoundaryIs></Polygon></MultiGeometry>
  </Placemark>
  <Placemark>
	<Style><LineStyle><color>ff0000ff</color></LineStyle><PolyStyle><fill>0</fill></PolyStyle></Style>
	<ExtendedData><SchemaData schemaUrl="#RNN33_T01___V1">
		<SimpleData name="FID">11</SimpleData>
	</SchemaData></ExtendedData>
      <MultiGeometry><Polygon><outerBoundaryIs><LinearRing><coordinates>-62.4654419503969,-34.1574734979816 -62.4702737657374,-34.1597377304196 -62.4700904728639,-34.1590317294488 -62.465259922997,-34.1567721491715 -62.4654419503969,-34.1574734979816</coordinates></LinearRing></outerBoundaryIs></Polygon></MultiGeometry>
  </Placemark>
  <Placemark>
	<Style><LineStyle><color>ff0000ff</color></LineStyle><PolyStyle><fill>0</fill></PolyStyle></Style>
	<ExtendedData><SchemaData schemaUrl="#RNN33_T01___V1">
		<SimpleData name="FID">10</SimpleData>
	</SchemaData></ExtendedData>
      <MultiGeometry><Polygon><outerBoundaryIs><LinearRing><coordinates>-62.4702737657374,-34.1597377304196 -62.4746087088908,-34.1617691588091 -62.4744241599105,-34.1610586848444 -62.4700904728639,-34.1590317294488 -62.4702737657374,-34.1597377304196</coordinates></LinearRing></outerBoundaryIs></Polygon></MultiGeometry>
  </Placemark>
  <Placemark>
	<Style><LineStyle><color>ff0000ff</color></LineStyle><PolyStyle><fill>0</fill></PolyStyle></Style>
	<ExtendedData><SchemaData schemaUrl="#RNN33_T01___V1">
		<SimpleData name="FID">9</SimpleData>
	</SchemaData></ExtendedData>
      <MultiGeometry><Polygon><outerBoundaryIs><LinearRing><coordinates>-62.5042576081827,-34.1754996564788 -62.5075522947362,-34.1766937257287 -62.5073847787433,-34.1760491990413 -62.5048558761584,-34.1751316510038 -62.504265938688,-34.1749157885719 -62.503599095505,-34.1746584164793 -62.5029298990842,-34.1743763060609 -62.5024643977912,-34.1741661860541 -62.5019949697732,-34.1739478534088 -62.4746797021296,-34.161178165128 -62.4748632868454,-34.1618852335544 -62.501931502497,-34.1745377128055 -62.5030805068678,-34.1750426679551 -62.5042576081827,-34.1754996564788</coordinates></LinearRing></outerBoundaryIs></Polygon></MultiGeometry>
  </Placemark>
  <Placemark>
	<Style><LineStyle><color>ff0000ff</color></LineStyle><PolyStyle><fill>0</fill></PolyStyle></Style>
	<ExtendedData><SchemaData schemaUrl="#RNN33_T01___V1">
		<SimpleData name="FID">8</SimpleData>
	</SchemaData></ExtendedData>
      <MultiGeometry><Polygon><outerBoundaryIs><LinearRing><coordinates>-62.5077352174765,-34.17675973717 -62.52359946532,-34.1825163850559 -62.5233774995842,-34.1816575323903 -62.5231823634165,-34.1816118024068 -62.5226715185567,-34.1814841612384 -62.5219034824206,-34.1812696165178 -62.5211887157579,-34.1810449599252 -62.5200760097243,-34.1806530173577 -62.5075726455943,-34.1761174527661 -62.5077352174765,-34.17675973717</coordinates></LinearRing></outerBoundaryIs></Polygon></MultiGeometry>
  </Placemark>
  <Placemark>
	<Style><LineStyle><color>ff0000ff</color></LineStyle><PolyStyle><fill>0</fill></PolyStyle></Style>
	<ExtendedData><SchemaData schemaUrl="#RNN33_T01___V1">
		<SimpleData name="FID">7</SimpleData>
	</SchemaData></ExtendedData>
      <MultiGeometry><Polygon><outerBoundaryIs><LinearRing><coordinates>-62.5252733071453,-34.183117078767 -62.5330129006122,-34.1842776789031 -62.5327153781275,-34.1831365356698 -62.5247244070132,-34.181927829836 -62.5239782074064,-34.1817877368256 -62.5233774995842,-34.1816575323903 -62.5236016927865,-34.1825147170936 -62.5252733071453,-34.183117078767</coordinates></LinearRing></outerBoundaryIs></Polygon></MultiGeometry>
  </Placemark>
  <Placemark>
	<Style><LineStyle><color>ff0000ff</color></LineStyle><PolyStyle><fill>0</fill></PolyStyle></Style>
	<ExtendedData><SchemaData schemaUrl="#RNN33_T01___V1">
		<SimpleData name="FID">5</SimpleData>
	</SchemaData></ExtendedData>
      <MultiGeometry><Polygon><outerBoundaryIs><LinearRing><coordinates>-62.5327153781275,-34.1831365356698 -62.5330129006122,-34.1842776789031 -62.5334671316377,-34.1843459767641 -62.5341157877194,-34.1844575669856 -62.5346352981692,-34.184558395659 -62.5352569989594,-34.1846931564321 -62.5359092696893,-34.1848528752129 -62.5363774606225,-34.1849852174093 -62.5365972849027,-34.1850654710256 -62.5367975504012,-34.1851516260324 -62.5370066056747,-34.185256072952 -62.5372212590797,-34.1853808603594 -62.5374679318071,-34.1855500435837 -62.5377752186543,-34.1858095312892 -62.5380087149119,-34.1860563970258 -62.5382222732326,-34.186339902232 -62.5383522409479,-34.1865552062184 -62.5384622268543,-34.1867803860405 -62.5385213263266,-34.1869286675505 -62.5385966750237,-34.1871704249601 -62.5387393473673,-34.1877189903438 -62.5387617677652,-34.1877687216006 -62.5387858993766,-34.1878031875638 -62.539061064945,-34.1872767010504 -62.5377909046585,-34.1824058839427 -62.5377034105218,-34.1824215150248 -62.5376426274683,-34.182437642264 -62.5375841215232,-34.1824646265828 -62.5375368607292,-34.1824977765316 -62.5374949059526,-34.1825415406632 -62.537465534973,-34.1825890996877 -62.5374475908268,-34.1826416490822 -62.5374424719788,-34.1826951947398 -62.5374498020803,-34.1827480322145 -62.5375489891178,-34.1831306016857 -62.5375615971617,-34.1832039668601 -62.5375612112204,-34.1832815660935 -62.5375485857558,-34.1833523894282 -62.5375228852881,-34.1834247449683 -62.5374885515665,-34.1834876365663 -62.537443075002,-34.1835477848463 -62.5373786983486,-34.1836104870107 -62.5373140607678,-34.1836572437278 -62.5372459943785,-34.1836945188917 -62.5371682051731,-34.1837257770712 -62.53708375496,-34.1837482513728 -62.5369958597995,-34.1837607037174 -62.5368900605924,-34.183761901226 -62.5367949509832,-34.1837507116304 -62.5327153781275,-34.1831365356698</coordinates></LinearRing></outerBoundaryIs></Polygon></MultiGeometry>
  </Placemark>
  <Placemark>
	<Style><LineStyle><color>ff0000ff</color></LineStyle><PolyStyle><fill>0</fill></PolyStyle></Style>
	<ExtendedData><SchemaData schemaUrl="#RNN33_T01___V1">
		<SimpleData name="FID">4</SimpleData>
	</SchemaData></ExtendedData>
      <MultiGeometry><Polygon><outerBoundaryIs><LinearRing><coordinates>-62.5439693641657,-34.1886700159456 -62.548331178604,-34.1915416871435 -62.5498509819815,-34.1921186521855 -62.5522088130031,-34.1933727793127 -62.5519912127376,-34.1925256118676 -62.5502693830722,-34.191438487403 -62.5394150853606,-34.1842917971988 -62.5392329684477,-34.1841563368549 -62.5390818927353,-34.184014556089 -62.5389165325195,-34.1838122415284 -62.5387886382859,-34.1835936508365 -62.5387030984283,-34.1833735523303 -62.5384913658345,-34.182561019761 -62.5384574520826,-34.1824859329074 -62.5383913849171,-34.1824161977269 -62.5383151553789,-34.1823728069587 -62.5382453415004,-34.1823517226254 -62.5381599942276,-34.1823442070447 -62.5380522013239,-34.1823572081996 -62.5379948096563,-34.1823321804751 -62.5394318283983,-34.1878647200653 -62.5395691374679,-34.1878342802164 -62.5396666225974,-34.1877871123164 -62.5397283501664,-34.187730051099 -62.5397680730728,-34.1876624512915 -62.5397843743782,-34.1875840719102 -62.5397771029521,-34.1875187972263 -62.5397420344139,-34.1873836264084 -62.5397293615105,-34.1873081902011 -62.5397335109591,-34.1872042889105 -62.5397709924374,-34.1870836563266 -62.5398435428836,-34.1869716695772 -62.5399313875155,-34.186888744293 -62.5400305985292,-34.1868268512292 -62.5401590339971,-34.1867775999659 -62.5403165954283,-34.1867521670188 -62.5405152716013,-34.1867525568238 -62.5407330438569,-34.1867785945841 -62.5408999120311,-34.1868175822753 -62.5410610813612,-34.1868726386212 -62.5412369714096,-34.1869556865551 -62.5418377330015,-34.1872987480407 -62.5422850775567,-34.1875703701109 -62.5439693641657,-34.1886700159456</coordinates></LinearRing></outerBoundaryIs></Polygon></MultiGeometry>
  </Placemark>
  <Placemark>
	<Style><LineStyle><color>ff0000ff</color></LineStyle><PolyStyle><fill>0</fill></PolyStyle></Style>
	<ExtendedData><SchemaData schemaUrl="#RNN33_T01___V1">
		<SimpleData name="FID">1</SimpleData>
	</SchemaData></ExtendedData>
      <MultiGeometry><Polygon><outerBoundaryIs><LinearRing><coordinates>-62.5675093894249,-34.2015079861511 -62.5721767342676,-34.2039886515605 -62.5719816559865,-34.2032478418662 -62.568406257113,-34.2013477167761 -62.5675093894249,-34.2015079861511</coordinates></LinearRing></outerBoundaryIs></Polygon></MultiGeometry>
  </Placemark>
  <Placemark>
	<Style><LineStyle><color>ff0000ff</color></LineStyle><PolyStyle><fill>0</fill></PolyStyle></Style>
	<ExtendedData><SchemaData schemaUrl="#RNN33_T01___V1">
		<SimpleData name="FID">3</SimpleData>
	</SchemaData></ExtendedData>
      <MultiGeometry><Polygon><outerBoundaryIs><LinearRing><coordinates>-62.5522088130031,-34.1933727793127 -62.5592711438827,-34.1971288014281 -62.5590826086115,-34.1963919761411 -62.5546597522911,-34.1940406904927 -62.5537086461556,-34.1935230458497 -62.5529349576007,-34.1930839764162 -62.5519912127376,-34.1925256118676 -62.5522088130031,-34.1933727793127</coordinates></LinearRing></outerBoundaryIs></Polygon></MultiGeometry>
  </Placemark>
</Folder>
</Document></kml>
